{
    "createProduct": {
        "type": "object",
        "properties": {
            "id": {
                "type": "number"
                
            },
            "name": {
                "type": "string"
                
            },
            "description": {
                "type": "string"
                
            },
            "status": {
                "type": "string"
                
            },
            "price": {
                "type": "number"
                
            },
            "image": {
                "type":"file",
                "url":{"type":"string"}
            },
            "category_id": {
                "type": "number"
                
            }
        },
        "example": {
            "name": "Koth Porotta",
            "description":"Kerala style Koth Porotta",
            "status": "active",
            "price":120,
            "image":"/home/toobler/Desktop/projects/foodappnew/foodapp/63841432.jpg",
            "category_id":7
        }
    },

    "updateProduct": {
        "type": "object",
        "properties": {
            "id": {
                "type": "number" 
            },
            "name": {
                "type": "string"
            },
            "description": {
                "type": "string"
            },
            "status": {
                "type": "string"
            },
            "price": {
                "type": "number"
            },
            "image": {
                "type": "file",
                "url":{"type": "string"}
            },
            "category_id": {
                "type": "number"
            }
        },
        "example": {
            "name": "Koth Porotta",
            "description":"Kerala style Koth Porotta",
            "status": "inactive",
            "price":140,
            "image":"/home/toobler/Desktop/projects/foodappnew/foodapp/63841432.jpg",
            "category_id":7
        }
    }
}
